^C:\USERS\ADMIN\ONEDRIVE\РАБОЧИЙ СТОЛ\АРХИТЕКТУРА ВЫЧИСЛИТЕЛЬНЫХ СИСТЕМ\ДЗ\PINSPRODUCTION\PINSPRODUCTION\PINSPRODUCTION.CPP
C:\USERS\ADMIN\ONEDRIVE\Рабочий стол\Архитектура вычислительных систем\Дз\PINSPRODUCTION\PINSPRODUCTION\DEBUG\VC142.PDB
C:\USERS\ADMIN\ONEDRIVE\Рабочий стол\Архитектура вычислительных систем\Дз\PINSPRODUCTION\PINSPRODUCTION\DEBUG\VC142.IDB
C:\USERS\ADMIN\ONEDRIVE\Рабочий стол\Архитектура вычислительных систем\Дз\PINSPRODUCTION\PINSPRODUCTION\DEBUG\PINSPRODUCTION.OBJ
